user_id|user_surname|user_name|email|password|create_time
1|Kulchits’kiy|Ivan|kulchits’kiy.ivan@dnu.ua|12345|2020-09-01
2|Griror’ev|Petr|griror’ev.petr@dnu.ua|12345|2020-09-02
3|Mihaylov|Alexey|mihaylov.alexey@dnu.ua|12345|2020-09-03
4|Orlov|Grigoriy|orlov.grigoriy@dnu.ua|12345|2020-09-04
5|Haskina|Inna|haskina.inna@dnu.ua|12345|2020-09-05
6|Koval|Olga|koval.olga@dnu.ua|12345|2020-09-06
7|Stets|Veronika|stets.veronika@dnu.ua|12345|2020-09-07
8|Ivolgina|Nanalja|ivolgina.nanalja@dnu.ua|12345|2020-09-08
9|Beroev|Igor|beroev.igor@dnu.ua|12345|2020-09-09
10|Belih|Eror|belih.eror@dnu.ua|12345|2020-09-10
